{
  "$schema": "http://json-schema.org/draft-06/schema#",
  "title": "Captain",
  "description": "A captain for HTR",
  "type": "object",
  "properties": {
    "_id": {
      "title": "Internal identifier",
      "description": "The unique identifier for a captain",
      "type": "number"
    },
    "classes": {
      "title": "First name",
      "description": "Captain's first name",
      "type": "array"
    },
    "fleets": {
      "title": "Last name",
      "description": "Captain's last name",
      "type": "array"
    },
    "filters": {
      "title": "Phone number",
      "description": "Captain's tel",
      "type": "array"
    },
    "name": {
      "title": "Email address",
      "description": "",
      "type": "string"
    },
    "orderBy": {
      "title": "Street address",
      "description": "",
      "type": "string"
    },
    "order": {
      "title": "Postal code",
      "description": "",
      "type": "string"
    },
    "prizeCount": {
      "title": "City",
      "description": "",
      "type": "number"
    },
    "race_id": {
      "title": "Country",
      "description": "",
      "type": "string"
    },
    "scoring": {
      "title": "First timer",
      "description": "",
      "type": "string"
    }
  },
  "required": ["id"]
}
